{
    "scripts": [
        "create path (sling:OrderedFolder) /content/dam/ucs-exercise-brian",
        "create path (nt:unstructured) /content/dam/ucs-exercise-brian/jcr:content",
        "set properties on /content/dam/ucs-exercise-brian/jcr:content\n  set cq:conf{String} to /conf/ucs-exercise-brian\n  set jcr:title{String} to \"UCS Exercise Brian\"\nend"
    ]
}
